[gd_resource type="Theme" load_steps=3 format=2]

[ext_resource path="res://fonts/NotoSans-Regular.ttf" type="DynamicFontData" id=1]

[sub_resource type="DynamicFont" id=1]
size = 24
font_data = ExtResource( 1 )

[resource]
default_font = SubResource( 1 )
