[gd_scene load_steps=7 format=2]

[ext_resource path="res://img/char-frame.png" type="Texture" id=1]
[ext_resource path="res://src/Player.gd" type="Script" id=2]
[ext_resource path="res://img/light.png" type="Texture" id=3]

[sub_resource type="CanvasItemMaterial" id=1]
light_mode = 1

[sub_resource type="Animation" id=3]
resource_name = "light"
length = 0.1
tracks/0/type = "value"
tracks/0/path = NodePath("Light2D:scale")
tracks/0/interp = 1
tracks/0/loop_wrap = true
tracks/0/imported = false
tracks/0/enabled = true
tracks/0/keys = {
"times": PoolRealArray( 0, 0.1 ),
"transitions": PoolRealArray( 1, 1 ),
"update": 0,
"values": [ Vector2( 1, 1 ), Vector2( 4, 4 ) ]
}

[sub_resource type="CapsuleShape2D" id=2]
radius = 7.31611
height = 14.1967

[node name="Player" type="KinematicBody2D"]
material = SubResource( 1 )
script = ExtResource( 2 )

[node name="Light2D" type="Light2D" parent="."]
texture = ExtResource( 3 )
mode = 2
shadow_enabled = true

[node name="Sprite" type="Sprite" parent="."]
use_parent_material = true
scale = Vector2( 0.5, 0.5 )
texture = ExtResource( 1 )
vframes = 3
hframes = 3

[node name="AnimationPlayer" type="AnimationPlayer" parent="."]
anims/light = SubResource( 3 )

[node name="CollisionShape2D" type="CollisionShape2D" parent="."]
position = Vector2( 3.37118, 1.87289 )
shape = SubResource( 2 )
